SOSADnD package
===============

Submodules
----------

SOSADnD.asgi module
-------------------

.. automodule:: SOSADnD.asgi
    :members:
    :undoc-members:
    :show-inheritance:

SOSADnD.settings module
-----------------------

.. automodule:: SOSADnD.settings
    :members:
    :undoc-members:
    :show-inheritance:

SOSADnD.urls module
-------------------

.. automodule:: SOSADnD.urls
    :members:
    :undoc-members:
    :show-inheritance:

SOSADnD.wsgi module
-------------------

.. automodule:: SOSADnD.wsgi
    :members:
    :undoc-members:
    :show-inheritance:


Module contents
---------------

.. automodule:: SOSADnD
    :members:
    :undoc-members:
    :show-inheritance:
